<?xml version="1.0" encoding="UTF-8"?>
<svg xmlns="http://www.w3.org/2000/svg" xmlns:xlink="http://www.w3.org/1999/xlink" width="284.838897pt" height="305.487488pt" viewBox="0 0 284.838897 305.487488" version="1.1">
<defs>
<g>
<symbol overflow="visible" id="glyph0-0">
<path style="stroke:none;" d="M 6.6875 -8.84375 L 6.6875 0 L 0.296875 0 L 0.296875 -8.84375 Z M 6.09375 -0.546875 L 6.09375 -8.296875 L 0.875 -8.296875 L 0.875 -0.546875 Z M 5.25 -5.84375 C 5.25 -5.570312 5.207031 -5.332031 5.125 -5.125 C 5.039062 -4.914062 4.925781 -4.738281 4.78125 -4.59375 C 4.644531 -4.445312 4.476562 -4.332031 4.28125 -4.25 C 4.082031 -4.175781 3.867188 -4.128906 3.640625 -4.109375 L 3.609375 -3.078125 C 3.609375 -3.035156 3.570312 -3.003906 3.5 -2.984375 C 3.425781 -2.960938 3.332031 -2.953125 3.21875 -2.953125 C 3.15625 -2.953125 3.097656 -2.953125 3.046875 -2.953125 C 3.003906 -2.960938 2.96875 -2.972656 2.9375 -2.984375 C 2.90625 -2.992188 2.878906 -3.003906 2.859375 -3.015625 C 2.847656 -3.023438 2.84375 -3.046875 2.84375 -3.078125 L 2.8125 -4.328125 C 2.800781 -4.472656 2.828125 -4.570312 2.890625 -4.625 C 2.960938 -4.675781 3.050781 -4.703125 3.15625 -4.703125 L 3.28125 -4.703125 C 3.488281 -4.703125 3.660156 -4.726562 3.796875 -4.78125 C 3.929688 -4.84375 4.039062 -4.921875 4.125 -5.015625 C 4.207031 -5.109375 4.265625 -5.222656 4.296875 -5.359375 C 4.335938 -5.492188 4.359375 -5.640625 4.359375 -5.796875 C 4.359375 -6.128906 4.265625 -6.390625 4.078125 -6.578125 C 3.890625 -6.773438 3.585938 -6.875 3.171875 -6.875 C 3.003906 -6.875 2.851562 -6.859375 2.71875 -6.828125 C 2.582031 -6.796875 2.457031 -6.753906 2.34375 -6.703125 C 2.238281 -6.660156 2.15625 -6.617188 2.09375 -6.578125 C 2.03125 -6.546875 1.984375 -6.53125 1.953125 -6.53125 C 1.929688 -6.53125 1.910156 -6.535156 1.890625 -6.546875 C 1.878906 -6.554688 1.867188 -6.570312 1.859375 -6.59375 C 1.847656 -6.625 1.835938 -6.660156 1.828125 -6.703125 C 1.816406 -6.742188 1.8125 -6.800781 1.8125 -6.875 C 1.8125 -6.957031 1.816406 -7.019531 1.828125 -7.0625 C 1.847656 -7.113281 1.875 -7.160156 1.90625 -7.203125 C 1.9375 -7.234375 2 -7.269531 2.09375 -7.3125 C 2.1875 -7.351562 2.296875 -7.390625 2.421875 -7.421875 C 2.546875 -7.460938 2.679688 -7.492188 2.828125 -7.515625 C 2.984375 -7.546875 3.132812 -7.5625 3.28125 -7.5625 C 3.625 -7.5625 3.921875 -7.515625 4.171875 -7.421875 C 4.421875 -7.335938 4.625 -7.21875 4.78125 -7.0625 C 4.9375 -6.90625 5.050781 -6.722656 5.125 -6.515625 C 5.207031 -6.304688 5.25 -6.082031 5.25 -5.84375 Z M 3.75 -1.859375 C 3.75 -1.765625 3.738281 -1.6875 3.71875 -1.625 C 3.707031 -1.5625 3.679688 -1.507812 3.640625 -1.46875 C 3.609375 -1.425781 3.554688 -1.394531 3.484375 -1.375 C 3.421875 -1.363281 3.34375 -1.359375 3.25 -1.359375 C 3.144531 -1.359375 3.0625 -1.363281 3 -1.375 C 2.9375 -1.394531 2.882812 -1.425781 2.84375 -1.46875 C 2.800781 -1.507812 2.769531 -1.5625 2.75 -1.625 C 2.726562 -1.6875 2.71875 -1.765625 2.71875 -1.859375 C 2.71875 -1.960938 2.726562 -2.046875 2.75 -2.109375 C 2.769531 -2.171875 2.800781 -2.222656 2.84375 -2.265625 C 2.882812 -2.304688 2.9375 -2.335938 3 -2.359375 C 3.0625 -2.378906 3.144531 -2.390625 3.25 -2.390625 C 3.34375 -2.390625 3.421875 -2.378906 3.484375 -2.359375 C 3.554688 -2.335938 3.609375 -2.304688 3.640625 -2.265625 C 3.679688 -2.222656 3.707031 -2.171875 3.71875 -2.109375 C 3.738281 -2.046875 3.75 -1.960938 3.75 -1.859375 Z M 0 2.71875 Z M 0 2.71875 "/>
</symbol>
<symbol overflow="visible" id="glyph0-1">
<path style="stroke:none;" d="M 6.34375 -0.46875 C 6.34375 -0.375 6.332031 -0.296875 6.3125 -0.234375 C 6.300781 -0.179688 6.285156 -0.132812 6.265625 -0.09375 C 6.242188 -0.0625 6.21875 -0.0351562 6.1875 -0.015625 C 6.15625 -0.00390625 6.125 0 6.09375 0 L 1.46875 0 C 1.4375 0 1.40625 -0.00390625 1.375 -0.015625 C 1.351562 -0.0351562 1.328125 -0.0625 1.296875 -0.09375 C 1.273438 -0.132812 1.253906 -0.179688 1.234375 -0.234375 C 1.222656 -0.296875 1.21875 -0.375 1.21875 -0.46875 C 1.21875 -0.550781 1.222656 -0.617188 1.234375 -0.671875 C 1.253906 -0.734375 1.273438 -0.78125 1.296875 -0.8125 C 1.316406 -0.851562 1.34375 -0.882812 1.375 -0.90625 C 1.40625 -0.925781 1.4375 -0.9375 1.46875 -0.9375 L 3.3125 -0.9375 L 3.3125 -7.671875 L 1.609375 -6.65625 C 1.523438 -6.601562 1.453125 -6.570312 1.390625 -6.5625 C 1.335938 -6.5625 1.296875 -6.570312 1.265625 -6.59375 C 1.234375 -6.625 1.210938 -6.671875 1.203125 -6.734375 C 1.191406 -6.804688 1.1875 -6.894531 1.1875 -7 C 1.1875 -7.082031 1.1875 -7.148438 1.1875 -7.203125 C 1.195312 -7.253906 1.207031 -7.296875 1.21875 -7.328125 C 1.238281 -7.367188 1.257812 -7.40625 1.28125 -7.4375 C 1.3125 -7.46875 1.347656 -7.492188 1.390625 -7.515625 L 3.421875 -8.828125 C 3.441406 -8.835938 3.460938 -8.847656 3.484375 -8.859375 C 3.515625 -8.867188 3.550781 -8.878906 3.59375 -8.890625 C 3.632812 -8.898438 3.679688 -8.90625 3.734375 -8.90625 C 3.796875 -8.90625 3.863281 -8.90625 3.9375 -8.90625 C 4.050781 -8.90625 4.144531 -8.898438 4.21875 -8.890625 C 4.289062 -8.878906 4.347656 -8.863281 4.390625 -8.84375 C 4.429688 -8.832031 4.457031 -8.8125 4.46875 -8.78125 C 4.476562 -8.757812 4.484375 -8.738281 4.484375 -8.71875 L 4.484375 -0.9375 L 6.09375 -0.9375 C 6.125 -0.9375 6.15625 -0.925781 6.1875 -0.90625 C 6.21875 -0.882812 6.242188 -0.851562 6.265625 -0.8125 C 6.285156 -0.78125 6.300781 -0.734375 6.3125 -0.671875 C 6.332031 -0.617188 6.34375 -0.550781 6.34375 -0.46875 Z M 6.34375 -0.46875 "/>
</symbol>
<symbol overflow="visible" id="glyph0-2">
<path style="stroke:none;" d="M 2.5 -0.75 C 2.5 -0.425781 2.445312 -0.207031 2.34375 -0.09375 C 2.238281 0.0078125 2.039062 0.0625 1.75 0.0625 C 1.476562 0.0625 1.289062 0.0078125 1.1875 -0.09375 C 1.082031 -0.195312 1.03125 -0.40625 1.03125 -0.71875 C 1.03125 -1.039062 1.082031 -1.253906 1.1875 -1.359375 C 1.300781 -1.472656 1.5 -1.53125 1.78125 -1.53125 C 2.050781 -1.53125 2.238281 -1.476562 2.34375 -1.375 C 2.445312 -1.269531 2.5 -1.0625 2.5 -0.75 Z M 2.5 -0.75 "/>
</symbol>
<symbol overflow="visible" id="glyph0-3">
<path style="stroke:none;" d="M 6.3125 -0.5 C 6.3125 -0.425781 6.304688 -0.351562 6.296875 -0.28125 C 6.285156 -0.21875 6.269531 -0.164062 6.25 -0.125 C 6.226562 -0.0820312 6.203125 -0.0507812 6.171875 -0.03125 C 6.140625 -0.0078125 6.101562 0 6.0625 0 L 1.171875 0 C 1.109375 0 1.050781 -0.00390625 1 -0.015625 C 0.957031 -0.0351562 0.914062 -0.0625 0.875 -0.09375 C 0.84375 -0.132812 0.816406 -0.1875 0.796875 -0.25 C 0.785156 -0.320312 0.78125 -0.410156 0.78125 -0.515625 C 0.78125 -0.609375 0.78125 -0.6875 0.78125 -0.75 C 0.789062 -0.820312 0.804688 -0.882812 0.828125 -0.9375 C 0.859375 -0.988281 0.890625 -1.039062 0.921875 -1.09375 C 0.953125 -1.144531 0.992188 -1.203125 1.046875 -1.265625 L 2.765625 -3.078125 C 3.160156 -3.492188 3.476562 -3.867188 3.71875 -4.203125 C 3.957031 -4.535156 4.140625 -4.835938 4.265625 -5.109375 C 4.398438 -5.390625 4.488281 -5.640625 4.53125 -5.859375 C 4.570312 -6.078125 4.59375 -6.285156 4.59375 -6.484375 C 4.59375 -6.679688 4.5625 -6.867188 4.5 -7.046875 C 4.4375 -7.222656 4.34375 -7.375 4.21875 -7.5 C 4.101562 -7.632812 3.953125 -7.738281 3.765625 -7.8125 C 3.585938 -7.894531 3.378906 -7.9375 3.140625 -7.9375 C 2.859375 -7.9375 2.609375 -7.894531 2.390625 -7.8125 C 2.171875 -7.738281 1.976562 -7.65625 1.8125 -7.5625 C 1.644531 -7.476562 1.503906 -7.394531 1.390625 -7.3125 C 1.273438 -7.238281 1.191406 -7.203125 1.140625 -7.203125 C 1.109375 -7.203125 1.078125 -7.207031 1.046875 -7.21875 C 1.023438 -7.238281 1.003906 -7.269531 0.984375 -7.3125 C 0.972656 -7.351562 0.960938 -7.40625 0.953125 -7.46875 C 0.941406 -7.539062 0.9375 -7.625 0.9375 -7.71875 C 0.9375 -7.789062 0.9375 -7.851562 0.9375 -7.90625 C 0.945312 -7.957031 0.957031 -8 0.96875 -8.03125 C 0.976562 -8.070312 0.992188 -8.109375 1.015625 -8.140625 C 1.035156 -8.171875 1.070312 -8.207031 1.125 -8.25 C 1.175781 -8.300781 1.269531 -8.367188 1.40625 -8.453125 C 1.539062 -8.535156 1.707031 -8.613281 1.90625 -8.6875 C 2.113281 -8.769531 2.335938 -8.835938 2.578125 -8.890625 C 2.828125 -8.941406 3.085938 -8.96875 3.359375 -8.96875 C 3.785156 -8.96875 4.160156 -8.90625 4.484375 -8.78125 C 4.804688 -8.664062 5.070312 -8.503906 5.28125 -8.296875 C 5.488281 -8.085938 5.644531 -7.84375 5.75 -7.5625 C 5.851562 -7.289062 5.90625 -6.992188 5.90625 -6.671875 C 5.90625 -6.390625 5.878906 -6.109375 5.828125 -5.828125 C 5.785156 -5.554688 5.679688 -5.253906 5.515625 -4.921875 C 5.359375 -4.597656 5.125 -4.234375 4.8125 -3.828125 C 4.507812 -3.429688 4.109375 -2.976562 3.609375 -2.46875 L 2.203125 -1 L 6.046875 -1 C 6.085938 -1 6.125 -0.988281 6.15625 -0.96875 C 6.1875 -0.945312 6.210938 -0.914062 6.234375 -0.875 C 6.265625 -0.832031 6.285156 -0.78125 6.296875 -0.71875 C 6.304688 -0.65625 6.3125 -0.582031 6.3125 -0.5 Z M 6.3125 -0.5 "/>
</symbol>
<symbol overflow="visible" id="glyph0-4">
<path style="stroke:none;" d="M 6.6875 -2.515625 C 6.6875 -2.367188 6.664062 -2.25 6.625 -2.15625 C 6.582031 -2.070312 6.519531 -2.03125 6.4375 -2.03125 L 5.4375 -2.03125 L 5.4375 -0.171875 C 5.4375 -0.128906 5.425781 -0.0976562 5.40625 -0.078125 C 5.382812 -0.0546875 5.351562 -0.0351562 5.3125 -0.015625 C 5.269531 0.00390625 5.210938 0.0195312 5.140625 0.03125 C 5.066406 0.0390625 4.972656 0.046875 4.859375 0.046875 C 4.742188 0.046875 4.648438 0.0390625 4.578125 0.03125 C 4.503906 0.0195312 4.445312 0.00390625 4.40625 -0.015625 C 4.363281 -0.0351562 4.332031 -0.0546875 4.3125 -0.078125 C 4.300781 -0.0976562 4.296875 -0.128906 4.296875 -0.171875 L 4.296875 -2.03125 L 0.640625 -2.03125 C 0.585938 -2.03125 0.539062 -2.035156 0.5 -2.046875 C 0.46875 -2.066406 0.4375 -2.09375 0.40625 -2.125 C 0.375 -2.164062 0.351562 -2.21875 0.34375 -2.28125 C 0.332031 -2.351562 0.328125 -2.441406 0.328125 -2.546875 C 0.328125 -2.640625 0.328125 -2.71875 0.328125 -2.78125 C 0.335938 -2.851562 0.347656 -2.914062 0.359375 -2.96875 C 0.378906 -3.03125 0.398438 -3.085938 0.421875 -3.140625 C 0.441406 -3.191406 0.46875 -3.242188 0.5 -3.296875 L 3.6875 -8.671875 C 3.707031 -8.710938 3.738281 -8.742188 3.78125 -8.765625 C 3.820312 -8.796875 3.875 -8.816406 3.9375 -8.828125 C 4.007812 -8.847656 4.097656 -8.863281 4.203125 -8.875 C 4.304688 -8.882812 4.425781 -8.890625 4.5625 -8.890625 C 4.707031 -8.890625 4.835938 -8.882812 4.953125 -8.875 C 5.066406 -8.863281 5.15625 -8.847656 5.21875 -8.828125 C 5.289062 -8.804688 5.34375 -8.78125 5.375 -8.75 C 5.414062 -8.71875 5.4375 -8.679688 5.4375 -8.640625 L 5.4375 -3 L 6.4375 -3 C 6.507812 -3 6.566406 -2.957031 6.609375 -2.875 C 6.660156 -2.800781 6.6875 -2.679688 6.6875 -2.515625 Z M 4.296875 -7.859375 L 4.28125 -7.859375 L 1.40625 -3 L 4.296875 -3 Z M 4.296875 -7.859375 "/>
</symbol>
<symbol overflow="visible" id="glyph0-5">
<path style="stroke:none;" d="M 6.546875 -2.859375 C 6.546875 -2.472656 6.484375 -2.097656 6.359375 -1.734375 C 6.242188 -1.378906 6.0625 -1.0625 5.8125 -0.78125 C 5.570312 -0.507812 5.257812 -0.289062 4.875 -0.125 C 4.5 0.0390625 4.054688 0.125 3.546875 0.125 C 3.171875 0.125 2.84375 0.0820312 2.5625 0 C 2.28125 -0.09375 2.035156 -0.222656 1.828125 -0.390625 C 1.617188 -0.566406 1.441406 -0.773438 1.296875 -1.015625 C 1.160156 -1.265625 1.050781 -1.546875 0.96875 -1.859375 C 0.882812 -2.171875 0.820312 -2.515625 0.78125 -2.890625 C 0.75 -3.265625 0.734375 -3.664062 0.734375 -4.09375 C 0.734375 -4.46875 0.753906 -4.847656 0.796875 -5.234375 C 0.835938 -5.628906 0.910156 -6.003906 1.015625 -6.359375 C 1.117188 -6.722656 1.257812 -7.0625 1.4375 -7.375 C 1.613281 -7.695312 1.835938 -7.972656 2.109375 -8.203125 C 2.378906 -8.441406 2.703125 -8.628906 3.078125 -8.765625 C 3.460938 -8.898438 3.90625 -8.96875 4.40625 -8.96875 C 4.570312 -8.96875 4.742188 -8.957031 4.921875 -8.9375 C 5.097656 -8.914062 5.257812 -8.890625 5.40625 -8.859375 C 5.550781 -8.828125 5.671875 -8.789062 5.765625 -8.75 C 5.867188 -8.707031 5.9375 -8.671875 5.96875 -8.640625 C 6 -8.617188 6.019531 -8.59375 6.03125 -8.5625 C 6.050781 -8.53125 6.066406 -8.5 6.078125 -8.46875 C 6.085938 -8.4375 6.09375 -8.394531 6.09375 -8.34375 C 6.101562 -8.300781 6.109375 -8.25 6.109375 -8.1875 C 6.109375 -8.101562 6.101562 -8.03125 6.09375 -7.96875 C 6.09375 -7.914062 6.082031 -7.867188 6.0625 -7.828125 C 6.050781 -7.796875 6.03125 -7.769531 6 -7.75 C 5.976562 -7.726562 5.945312 -7.71875 5.90625 -7.71875 C 5.863281 -7.71875 5.796875 -7.734375 5.703125 -7.765625 C 5.617188 -7.804688 5.515625 -7.84375 5.390625 -7.875 C 5.265625 -7.914062 5.113281 -7.953125 4.9375 -7.984375 C 4.769531 -8.015625 4.566406 -8.03125 4.328125 -8.03125 C 3.910156 -8.03125 3.546875 -7.941406 3.234375 -7.765625 C 2.929688 -7.597656 2.679688 -7.367188 2.484375 -7.078125 C 2.296875 -6.785156 2.15625 -6.445312 2.0625 -6.0625 C 1.96875 -5.675781 1.914062 -5.273438 1.90625 -4.859375 C 2.019531 -4.921875 2.148438 -4.984375 2.296875 -5.046875 C 2.441406 -5.117188 2.601562 -5.179688 2.78125 -5.234375 C 2.957031 -5.296875 3.144531 -5.34375 3.34375 -5.375 C 3.539062 -5.40625 3.75 -5.421875 3.96875 -5.421875 C 4.445312 -5.421875 4.847656 -5.351562 5.171875 -5.21875 C 5.503906 -5.09375 5.769531 -4.914062 5.96875 -4.6875 C 6.175781 -4.457031 6.320312 -4.1875 6.40625 -3.875 C 6.5 -3.5625 6.546875 -3.222656 6.546875 -2.859375 Z M 5.359375 -2.75 C 5.359375 -3.019531 5.332031 -3.257812 5.28125 -3.46875 C 5.226562 -3.6875 5.140625 -3.867188 5.015625 -4.015625 C 4.890625 -4.171875 4.722656 -4.289062 4.515625 -4.375 C 4.316406 -4.457031 4.066406 -4.5 3.765625 -4.5 C 3.585938 -4.5 3.414062 -4.484375 3.25 -4.453125 C 3.082031 -4.421875 2.921875 -4.378906 2.765625 -4.328125 C 2.609375 -4.273438 2.457031 -4.210938 2.3125 -4.140625 C 2.164062 -4.078125 2.035156 -4.003906 1.921875 -3.921875 C 1.921875 -3.328125 1.957031 -2.832031 2.03125 -2.4375 C 2.101562 -2.039062 2.210938 -1.722656 2.359375 -1.484375 C 2.503906 -1.242188 2.679688 -1.070312 2.890625 -0.96875 C 3.109375 -0.875 3.363281 -0.828125 3.65625 -0.828125 C 3.945312 -0.828125 4.195312 -0.878906 4.40625 -0.984375 C 4.625 -1.097656 4.800781 -1.242188 4.9375 -1.421875 C 5.082031 -1.609375 5.1875 -1.816406 5.25 -2.046875 C 5.320312 -2.273438 5.359375 -2.507812 5.359375 -2.75 Z M 5.359375 -2.75 "/>
</symbol>
<symbol overflow="visible" id="glyph0-6">
<path style="stroke:none;" d="M 6.515625 -2.265625 C 6.515625 -1.890625 6.445312 -1.550781 6.3125 -1.25 C 6.175781 -0.945312 5.976562 -0.691406 5.71875 -0.484375 C 5.46875 -0.285156 5.148438 -0.132812 4.765625 -0.03125 C 4.390625 0.0703125 3.957031 0.125 3.46875 0.125 C 3.019531 0.125 2.613281 0.078125 2.25 -0.015625 C 1.882812 -0.109375 1.578125 -0.25 1.328125 -0.4375 C 1.078125 -0.625 0.882812 -0.851562 0.75 -1.125 C 0.625 -1.394531 0.5625 -1.707031 0.5625 -2.0625 C 0.5625 -2.34375 0.601562 -2.597656 0.6875 -2.828125 C 0.78125 -3.054688 0.910156 -3.269531 1.078125 -3.46875 C 1.253906 -3.664062 1.46875 -3.847656 1.71875 -4.015625 C 1.96875 -4.191406 2.253906 -4.359375 2.578125 -4.515625 C 2.296875 -4.648438 2.050781 -4.796875 1.84375 -4.953125 C 1.632812 -5.117188 1.457031 -5.289062 1.3125 -5.46875 C 1.164062 -5.65625 1.054688 -5.851562 0.984375 -6.0625 C 0.910156 -6.269531 0.875 -6.5 0.875 -6.75 C 0.875 -7.0625 0.925781 -7.351562 1.03125 -7.625 C 1.144531 -7.894531 1.3125 -8.128906 1.53125 -8.328125 C 1.757812 -8.523438 2.046875 -8.679688 2.390625 -8.796875 C 2.742188 -8.910156 3.15625 -8.96875 3.625 -8.96875 C 4.070312 -8.96875 4.457031 -8.914062 4.78125 -8.8125 C 5.101562 -8.707031 5.367188 -8.5625 5.578125 -8.375 C 5.796875 -8.1875 5.953125 -7.96875 6.046875 -7.71875 C 6.148438 -7.46875 6.203125 -7.203125 6.203125 -6.921875 C 6.203125 -6.679688 6.164062 -6.453125 6.09375 -6.234375 C 6.019531 -6.023438 5.910156 -5.828125 5.765625 -5.640625 C 5.617188 -5.453125 5.4375 -5.273438 5.21875 -5.109375 C 5.007812 -4.941406 4.769531 -4.785156 4.5 -4.640625 C 4.820312 -4.472656 5.109375 -4.304688 5.359375 -4.140625 C 5.617188 -3.972656 5.832031 -3.789062 6 -3.59375 C 6.164062 -3.40625 6.289062 -3.203125 6.375 -2.984375 C 6.46875 -2.765625 6.515625 -2.523438 6.515625 -2.265625 Z M 5.046875 -6.8125 C 5.046875 -7 5.007812 -7.171875 4.9375 -7.328125 C 4.875 -7.484375 4.78125 -7.613281 4.65625 -7.71875 C 4.53125 -7.832031 4.367188 -7.914062 4.171875 -7.96875 C 3.984375 -8.03125 3.769531 -8.0625 3.53125 -8.0625 C 3.039062 -8.0625 2.664062 -7.945312 2.40625 -7.71875 C 2.15625 -7.5 2.03125 -7.195312 2.03125 -6.8125 C 2.03125 -6.632812 2.0625 -6.46875 2.125 -6.3125 C 2.1875 -6.15625 2.28125 -6.007812 2.40625 -5.875 C 2.539062 -5.738281 2.707031 -5.601562 2.90625 -5.46875 C 3.101562 -5.34375 3.335938 -5.210938 3.609375 -5.078125 C 4.078125 -5.304688 4.429688 -5.566406 4.671875 -5.859375 C 4.921875 -6.148438 5.046875 -6.46875 5.046875 -6.8125 Z M 5.328125 -2.140625 C 5.328125 -2.359375 5.285156 -2.550781 5.203125 -2.71875 C 5.128906 -2.882812 5.015625 -3.039062 4.859375 -3.1875 C 4.703125 -3.34375 4.503906 -3.488281 4.265625 -3.625 C 4.035156 -3.757812 3.765625 -3.90625 3.453125 -4.0625 C 3.171875 -3.914062 2.921875 -3.769531 2.703125 -3.625 C 2.484375 -3.488281 2.304688 -3.34375 2.171875 -3.1875 C 2.035156 -3.039062 1.929688 -2.882812 1.859375 -2.71875 C 1.785156 -2.550781 1.75 -2.367188 1.75 -2.171875 C 1.75 -1.734375 1.898438 -1.390625 2.203125 -1.140625 C 2.503906 -0.898438 2.957031 -0.78125 3.5625 -0.78125 C 4.144531 -0.78125 4.582031 -0.898438 4.875 -1.140625 C 5.175781 -1.390625 5.328125 -1.722656 5.328125 -2.140625 Z M 5.328125 -2.140625 "/>
</symbol>
<symbol overflow="visible" id="glyph0-7">
<path style="stroke:none;" d="M 6.609375 -4.4375 C 6.609375 -3.757812 6.554688 -3.140625 6.453125 -2.578125 C 6.347656 -2.023438 6.171875 -1.546875 5.921875 -1.140625 C 5.671875 -0.734375 5.34375 -0.421875 4.9375 -0.203125 C 4.539062 0.015625 4.046875 0.125 3.453125 0.125 C 2.898438 0.125 2.429688 0.0234375 2.046875 -0.171875 C 1.671875 -0.367188 1.363281 -0.660156 1.125 -1.046875 C 0.894531 -1.429688 0.734375 -1.90625 0.640625 -2.46875 C 0.546875 -3.03125 0.5 -3.675781 0.5 -4.40625 C 0.5 -5.082031 0.550781 -5.703125 0.65625 -6.265625 C 0.769531 -6.828125 0.945312 -7.304688 1.1875 -7.703125 C 1.4375 -8.109375 1.757812 -8.421875 2.15625 -8.640625 C 2.5625 -8.859375 3.054688 -8.96875 3.640625 -8.96875 C 4.203125 -8.96875 4.671875 -8.867188 5.046875 -8.671875 C 5.429688 -8.472656 5.738281 -8.179688 5.96875 -7.796875 C 6.195312 -7.410156 6.359375 -6.9375 6.453125 -6.375 C 6.554688 -5.8125 6.609375 -5.164062 6.609375 -4.4375 Z M 5.40625 -4.359375 C 5.40625 -4.804688 5.390625 -5.203125 5.359375 -5.546875 C 5.328125 -5.898438 5.28125 -6.210938 5.21875 -6.484375 C 5.15625 -6.753906 5.070312 -6.984375 4.96875 -7.171875 C 4.875 -7.367188 4.757812 -7.53125 4.625 -7.65625 C 4.488281 -7.78125 4.332031 -7.867188 4.15625 -7.921875 C 3.976562 -7.984375 3.78125 -8.015625 3.5625 -8.015625 C 3.175781 -8.015625 2.863281 -7.921875 2.625 -7.734375 C 2.382812 -7.554688 2.191406 -7.304688 2.046875 -6.984375 C 1.910156 -6.671875 1.816406 -6.296875 1.765625 -5.859375 C 1.722656 -5.429688 1.703125 -4.972656 1.703125 -4.484375 C 1.703125 -3.828125 1.734375 -3.265625 1.796875 -2.796875 C 1.867188 -2.335938 1.976562 -1.960938 2.125 -1.671875 C 2.269531 -1.378906 2.457031 -1.164062 2.6875 -1.03125 C 2.914062 -0.894531 3.195312 -0.828125 3.53125 -0.828125 C 3.78125 -0.828125 4 -0.867188 4.1875 -0.953125 C 4.382812 -1.035156 4.550781 -1.148438 4.6875 -1.296875 C 4.832031 -1.453125 4.953125 -1.640625 5.046875 -1.859375 C 5.140625 -2.078125 5.210938 -2.3125 5.265625 -2.5625 C 5.316406 -2.820312 5.351562 -3.101562 5.375 -3.40625 C 5.394531 -3.71875 5.40625 -4.035156 5.40625 -4.359375 Z M 5.40625 -4.359375 "/>
</symbol>
<symbol overflow="visible" id="glyph0-8">
<path style="stroke:none;" d=""/>
</symbol>
<symbol overflow="visible" id="glyph0-9">
<path style="stroke:none;" d="M 1.15625 1.640625 C 1.132812 1.703125 1.109375 1.75 1.078125 1.78125 C 1.046875 1.820312 1.003906 1.847656 0.953125 1.859375 C 0.910156 1.878906 0.859375 1.894531 0.796875 1.90625 C 0.734375 1.914062 0.648438 1.921875 0.546875 1.921875 C 0.441406 1.921875 0.347656 1.910156 0.265625 1.890625 C 0.191406 1.878906 0.132812 1.859375 0.09375 1.828125 C 0.0507812 1.796875 0.0234375 1.757812 0.015625 1.71875 C 0.00390625 1.675781 0.015625 1.625 0.046875 1.5625 L 4.1875 -9.78125 C 4.207031 -9.832031 4.226562 -9.875 4.25 -9.90625 C 4.28125 -9.945312 4.316406 -9.976562 4.359375 -10 C 4.410156 -10.019531 4.46875 -10.03125 4.53125 -10.03125 C 4.601562 -10.039062 4.6875 -10.046875 4.78125 -10.046875 C 4.894531 -10.046875 4.988281 -10.035156 5.0625 -10.015625 C 5.132812 -10.003906 5.191406 -9.984375 5.234375 -9.953125 C 5.273438 -9.929688 5.296875 -9.894531 5.296875 -9.84375 C 5.304688 -9.800781 5.300781 -9.75 5.28125 -9.6875 Z M 1.15625 1.640625 "/>
</symbol>
<symbol overflow="visible" id="glyph0-10">
<path style="stroke:none;" d="M 6.71875 -8.34375 C 6.71875 -8.25 6.710938 -8.171875 6.703125 -8.109375 C 6.691406 -8.046875 6.675781 -7.992188 6.65625 -7.953125 C 6.632812 -7.921875 6.609375 -7.894531 6.578125 -7.875 C 6.554688 -7.851562 6.523438 -7.84375 6.484375 -7.84375 L 4 -7.84375 L 4 -0.171875 C 4 -0.140625 3.988281 -0.109375 3.96875 -0.078125 C 3.945312 -0.0546875 3.914062 -0.0351562 3.875 -0.015625 C 3.832031 -0.00390625 3.769531 0.00390625 3.6875 0.015625 C 3.613281 0.0351562 3.519531 0.046875 3.40625 0.046875 C 3.300781 0.046875 3.207031 0.0351562 3.125 0.015625 C 3.050781 0.00390625 2.988281 -0.00390625 2.9375 -0.015625 C 2.894531 -0.0351562 2.863281 -0.0546875 2.84375 -0.078125 C 2.832031 -0.109375 2.828125 -0.140625 2.828125 -0.171875 L 2.828125 -7.84375 L 0.328125 -7.84375 C 0.296875 -7.84375 0.265625 -7.851562 0.234375 -7.875 C 0.203125 -7.894531 0.175781 -7.921875 0.15625 -7.953125 C 0.144531 -7.992188 0.132812 -8.046875 0.125 -8.109375 C 0.113281 -8.171875 0.109375 -8.25 0.109375 -8.34375 C 0.109375 -8.425781 0.113281 -8.5 0.125 -8.5625 C 0.132812 -8.632812 0.144531 -8.691406 0.15625 -8.734375 C 0.175781 -8.773438 0.203125 -8.800781 0.234375 -8.8125 C 0.265625 -8.832031 0.296875 -8.84375 0.328125 -8.84375 L 6.484375 -8.84375 C 6.523438 -8.84375 6.554688 -8.832031 6.578125 -8.8125 C 6.609375 -8.800781 6.632812 -8.773438 6.65625 -8.734375 C 6.675781 -8.691406 6.691406 -8.632812 6.703125 -8.5625 C 6.710938 -8.5 6.71875 -8.425781 6.71875 -8.34375 Z M 6.71875 -8.34375 "/>
</symbol>
<symbol overflow="visible" id="glyph0-11">
<path style="stroke:none;" d="M 3.390625 -9.421875 C 2.953125 -8.503906 2.625 -7.5625 2.40625 -6.59375 C 2.195312 -5.632812 2.09375 -4.664062 2.09375 -3.6875 C 2.09375 -2.707031 2.203125 -1.738281 2.421875 -0.78125 C 2.640625 0.175781 2.957031 1.117188 3.375 2.046875 C 3.394531 2.109375 3.40625 2.15625 3.40625 2.1875 C 3.40625 2.226562 3.390625 2.257812 3.359375 2.28125 C 3.328125 2.3125 3.28125 2.332031 3.21875 2.34375 C 3.15625 2.351562 3.066406 2.359375 2.953125 2.359375 C 2.867188 2.359375 2.796875 2.351562 2.734375 2.34375 C 2.671875 2.34375 2.617188 2.332031 2.578125 2.3125 C 2.535156 2.300781 2.5 2.285156 2.46875 2.265625 C 2.445312 2.253906 2.425781 2.238281 2.40625 2.21875 C 2.164062 1.75 1.953125 1.273438 1.765625 0.796875 C 1.578125 0.328125 1.414062 -0.148438 1.28125 -0.640625 C 1.15625 -1.140625 1.0625 -1.640625 1 -2.140625 C 0.9375 -2.648438 0.90625 -3.160156 0.90625 -3.671875 C 0.90625 -4.179688 0.941406 -4.6875 1.015625 -5.1875 C 1.085938 -5.695312 1.1875 -6.195312 1.3125 -6.6875 C 1.445312 -7.1875 1.609375 -7.671875 1.796875 -8.140625 C 1.984375 -8.617188 2.191406 -9.097656 2.421875 -9.578125 C 2.421875 -9.585938 2.429688 -9.597656 2.453125 -9.609375 C 2.472656 -9.628906 2.5 -9.644531 2.53125 -9.65625 C 2.570312 -9.675781 2.625 -9.6875 2.6875 -9.6875 C 2.757812 -9.695312 2.84375 -9.703125 2.9375 -9.703125 C 3.039062 -9.703125 3.125 -9.691406 3.1875 -9.671875 C 3.25 -9.660156 3.296875 -9.644531 3.328125 -9.625 C 3.367188 -9.601562 3.390625 -9.570312 3.390625 -9.53125 C 3.398438 -9.5 3.398438 -9.460938 3.390625 -9.421875 Z M 3.390625 -9.421875 "/>
</symbol>
<symbol overflow="visible" id="glyph0-12">
<path style="stroke:none;" d="M 6.953125 -0.1875 C 6.953125 -0.15625 6.941406 -0.125 6.921875 -0.09375 C 6.898438 -0.0625 6.867188 -0.0351562 6.828125 -0.015625 C 6.785156 -0.00390625 6.722656 0.00390625 6.640625 0.015625 C 6.566406 0.0351562 6.46875 0.046875 6.34375 0.046875 C 6.1875 0.046875 6.054688 0.0351562 5.953125 0.015625 C 5.847656 0.00390625 5.769531 -0.015625 5.71875 -0.046875 C 5.675781 -0.0859375 5.640625 -0.128906 5.609375 -0.171875 L 2.359375 -4.59375 L 2.359375 -0.171875 C 2.359375 -0.140625 2.347656 -0.109375 2.328125 -0.078125 C 2.304688 -0.0546875 2.269531 -0.0351562 2.21875 -0.015625 C 2.175781 -0.00390625 2.117188 0.00390625 2.046875 0.015625 C 1.972656 0.0351562 1.878906 0.046875 1.765625 0.046875 C 1.648438 0.046875 1.554688 0.0351562 1.484375 0.015625 C 1.410156 0.00390625 1.347656 -0.00390625 1.296875 -0.015625 C 1.253906 -0.0351562 1.222656 -0.0546875 1.203125 -0.078125 C 1.179688 -0.109375 1.171875 -0.140625 1.171875 -0.171875 L 1.171875 -8.671875 C 1.171875 -8.703125 1.179688 -8.734375 1.203125 -8.765625 C 1.222656 -8.796875 1.253906 -8.816406 1.296875 -8.828125 C 1.347656 -8.847656 1.410156 -8.863281 1.484375 -8.875 C 1.554688 -8.882812 1.648438 -8.890625 1.765625 -8.890625 C 1.878906 -8.890625 1.972656 -8.882812 2.046875 -8.875 C 2.117188 -8.863281 2.175781 -8.847656 2.21875 -8.828125 C 2.269531 -8.816406 2.304688 -8.796875 2.328125 -8.765625 C 2.347656 -8.734375 2.359375 -8.703125 2.359375 -8.671875 L 2.359375 -4.734375 L 5.484375 -8.671875 C 5.515625 -8.710938 5.546875 -8.742188 5.578125 -8.765625 C 5.617188 -8.796875 5.664062 -8.816406 5.71875 -8.828125 C 5.769531 -8.847656 5.832031 -8.863281 5.90625 -8.875 C 5.976562 -8.882812 6.070312 -8.890625 6.1875 -8.890625 C 6.3125 -8.890625 6.410156 -8.882812 6.484375 -8.875 C 6.554688 -8.863281 6.613281 -8.847656 6.65625 -8.828125 C 6.695312 -8.804688 6.722656 -8.78125 6.734375 -8.75 C 6.753906 -8.726562 6.765625 -8.703125 6.765625 -8.671875 C 6.765625 -8.609375 6.75 -8.546875 6.71875 -8.484375 C 6.6875 -8.429688 6.632812 -8.351562 6.5625 -8.25 L 3.625 -4.734375 L 6.78125 -0.546875 C 6.851562 -0.421875 6.898438 -0.335938 6.921875 -0.296875 C 6.941406 -0.253906 6.953125 -0.21875 6.953125 -0.1875 Z M 6.953125 -0.1875 "/>
</symbol>
<symbol overflow="visible" id="glyph0-13">
<path style="stroke:none;" d="M 3.328125 -3.671875 C 3.328125 -3.160156 3.296875 -2.648438 3.234375 -2.140625 C 3.171875 -1.640625 3.070312 -1.140625 2.9375 -0.640625 C 2.8125 -0.148438 2.65625 0.328125 2.46875 0.796875 C 2.289062 1.273438 2.078125 1.75 1.828125 2.21875 C 1.816406 2.238281 1.796875 2.253906 1.765625 2.265625 C 1.742188 2.285156 1.707031 2.300781 1.65625 2.3125 C 1.613281 2.332031 1.5625 2.34375 1.5 2.34375 C 1.445312 2.351562 1.378906 2.359375 1.296875 2.359375 C 1.179688 2.359375 1.085938 2.351562 1.015625 2.34375 C 0.953125 2.332031 0.90625 2.3125 0.875 2.28125 C 0.84375 2.257812 0.828125 2.226562 0.828125 2.1875 C 0.835938 2.15625 0.851562 2.109375 0.875 2.046875 C 1.289062 1.128906 1.601562 0.191406 1.8125 -0.765625 C 2.03125 -1.734375 2.140625 -2.707031 2.140625 -3.6875 C 2.140625 -4.664062 2.03125 -5.632812 1.8125 -6.59375 C 1.601562 -7.5625 1.285156 -8.503906 0.859375 -9.421875 C 0.835938 -9.460938 0.828125 -9.5 0.828125 -9.53125 C 0.835938 -9.570312 0.859375 -9.601562 0.890625 -9.625 C 0.929688 -9.644531 0.984375 -9.660156 1.046875 -9.671875 C 1.117188 -9.691406 1.207031 -9.703125 1.3125 -9.703125 C 1.40625 -9.703125 1.484375 -9.695312 1.546875 -9.6875 C 1.609375 -9.6875 1.65625 -9.675781 1.6875 -9.65625 C 1.726562 -9.644531 1.757812 -9.628906 1.78125 -9.609375 C 1.800781 -9.597656 1.816406 -9.585938 1.828125 -9.578125 C 2.296875 -8.640625 2.660156 -7.675781 2.921875 -6.6875 C 3.191406 -5.695312 3.328125 -4.691406 3.328125 -3.671875 Z M 3.328125 -3.671875 "/>
</symbol>
<symbol overflow="visible" id="glyph0-14">
<path style="stroke:none;" d="M 3.8125 -3.453125 C 3.8125 -3.273438 3.789062 -3.148438 3.75 -3.078125 C 3.707031 -3.015625 3.648438 -2.984375 3.578125 -2.984375 L 0.71875 -2.984375 C 0.632812 -2.984375 0.570312 -3.015625 0.53125 -3.078125 C 0.488281 -3.148438 0.46875 -3.273438 0.46875 -3.453125 C 0.46875 -3.628906 0.488281 -3.75 0.53125 -3.8125 C 0.570312 -3.882812 0.632812 -3.921875 0.71875 -3.921875 L 3.578125 -3.921875 C 3.609375 -3.921875 3.640625 -3.910156 3.671875 -3.890625 C 3.703125 -3.878906 3.726562 -3.851562 3.75 -3.8125 C 3.769531 -3.78125 3.785156 -3.734375 3.796875 -3.671875 C 3.804688 -3.609375 3.8125 -3.535156 3.8125 -3.453125 Z M 3.8125 -3.453125 "/>
</symbol>
<symbol overflow="visible" id="glyph0-15">
<path style="stroke:none;" d="M 6.25 -2.53125 C 6.25 -2.125 6.175781 -1.753906 6.03125 -1.421875 C 5.894531 -1.097656 5.691406 -0.820312 5.421875 -0.59375 C 5.160156 -0.363281 4.835938 -0.1875 4.453125 -0.0625 C 4.066406 0.0625 3.628906 0.125 3.140625 0.125 C 2.835938 0.125 2.554688 0.0976562 2.296875 0.046875 C 2.046875 0.00390625 1.816406 -0.046875 1.609375 -0.109375 C 1.410156 -0.179688 1.242188 -0.25 1.109375 -0.3125 C 0.984375 -0.382812 0.90625 -0.4375 0.875 -0.46875 C 0.84375 -0.5 0.816406 -0.53125 0.796875 -0.5625 C 0.773438 -0.59375 0.753906 -0.628906 0.734375 -0.671875 C 0.722656 -0.722656 0.710938 -0.78125 0.703125 -0.84375 C 0.703125 -0.914062 0.703125 -1 0.703125 -1.09375 C 0.703125 -1.257812 0.71875 -1.375 0.75 -1.4375 C 0.78125 -1.5 0.828125 -1.53125 0.890625 -1.53125 C 0.929688 -1.53125 1.007812 -1.492188 1.125 -1.421875 C 1.25 -1.347656 1.40625 -1.269531 1.59375 -1.1875 C 1.78125 -1.101562 2 -1.023438 2.25 -0.953125 C 2.507812 -0.878906 2.796875 -0.84375 3.109375 -0.84375 C 3.410156 -0.84375 3.671875 -0.878906 3.890625 -0.953125 C 4.117188 -1.035156 4.3125 -1.144531 4.46875 -1.28125 C 4.625 -1.425781 4.738281 -1.59375 4.8125 -1.78125 C 4.894531 -1.976562 4.9375 -2.191406 4.9375 -2.421875 C 4.9375 -2.671875 4.882812 -2.894531 4.78125 -3.09375 C 4.6875 -3.289062 4.546875 -3.460938 4.359375 -3.609375 C 4.171875 -3.753906 3.9375 -3.863281 3.65625 -3.9375 C 3.382812 -4.019531 3.070312 -4.0625 2.71875 -4.0625 L 1.875 -4.0625 C 1.84375 -4.0625 1.804688 -4.066406 1.765625 -4.078125 C 1.734375 -4.097656 1.703125 -4.125 1.671875 -4.15625 C 1.648438 -4.195312 1.628906 -4.25 1.609375 -4.3125 C 1.597656 -4.375 1.59375 -4.453125 1.59375 -4.546875 C 1.59375 -4.628906 1.597656 -4.695312 1.609375 -4.75 C 1.628906 -4.8125 1.648438 -4.859375 1.671875 -4.890625 C 1.703125 -4.929688 1.734375 -4.957031 1.765625 -4.96875 C 1.796875 -4.988281 1.832031 -5 1.875 -5 L 2.640625 -5 C 2.941406 -5 3.210938 -5.035156 3.453125 -5.109375 C 3.691406 -5.191406 3.894531 -5.304688 4.0625 -5.453125 C 4.226562 -5.597656 4.351562 -5.769531 4.4375 -5.96875 C 4.53125 -6.175781 4.578125 -6.40625 4.578125 -6.65625 C 4.578125 -6.832031 4.546875 -7.003906 4.484375 -7.171875 C 4.429688 -7.335938 4.34375 -7.484375 4.21875 -7.609375 C 4.101562 -7.734375 3.953125 -7.828125 3.765625 -7.890625 C 3.585938 -7.960938 3.375 -8 3.125 -8 C 2.863281 -8 2.625 -7.957031 2.40625 -7.875 C 2.1875 -7.800781 1.988281 -7.71875 1.8125 -7.625 C 1.632812 -7.539062 1.488281 -7.457031 1.375 -7.375 C 1.257812 -7.289062 1.179688 -7.25 1.140625 -7.25 C 1.109375 -7.25 1.078125 -7.253906 1.046875 -7.265625 C 1.023438 -7.273438 1.003906 -7.296875 0.984375 -7.328125 C 0.972656 -7.367188 0.960938 -7.421875 0.953125 -7.484375 C 0.953125 -7.546875 0.953125 -7.625 0.953125 -7.71875 C 0.953125 -7.789062 0.953125 -7.851562 0.953125 -7.90625 C 0.960938 -7.957031 0.972656 -8 0.984375 -8.03125 C 0.992188 -8.070312 1.007812 -8.109375 1.03125 -8.140625 C 1.050781 -8.179688 1.082031 -8.222656 1.125 -8.265625 C 1.164062 -8.304688 1.253906 -8.367188 1.390625 -8.453125 C 1.523438 -8.535156 1.6875 -8.613281 1.875 -8.6875 C 2.070312 -8.769531 2.296875 -8.835938 2.546875 -8.890625 C 2.796875 -8.941406 3.066406 -8.96875 3.359375 -8.96875 C 3.773438 -8.96875 4.132812 -8.914062 4.4375 -8.8125 C 4.75 -8.707031 5.007812 -8.5625 5.21875 -8.375 C 5.425781 -8.1875 5.582031 -7.957031 5.6875 -7.6875 C 5.789062 -7.414062 5.84375 -7.117188 5.84375 -6.796875 C 5.84375 -6.523438 5.804688 -6.269531 5.734375 -6.03125 C 5.660156 -5.789062 5.550781 -5.578125 5.40625 -5.390625 C 5.269531 -5.203125 5.097656 -5.039062 4.890625 -4.90625 C 4.679688 -4.78125 4.441406 -4.695312 4.171875 -4.65625 L 4.171875 -4.640625 C 4.484375 -4.609375 4.765625 -4.53125 5.015625 -4.40625 C 5.265625 -4.28125 5.476562 -4.125 5.65625 -3.9375 C 5.84375 -3.757812 5.988281 -3.550781 6.09375 -3.3125 C 6.195312 -3.070312 6.25 -2.8125 6.25 -2.53125 Z M 6.25 -2.53125 "/>
</symbol>
<symbol overflow="visible" id="glyph0-16">
<path style="stroke:none;" d="M 6.390625 -4.765625 C 6.390625 -4.390625 6.363281 -4.003906 6.3125 -3.609375 C 6.269531 -3.210938 6.191406 -2.832031 6.078125 -2.46875 C 5.972656 -2.113281 5.828125 -1.773438 5.640625 -1.453125 C 5.453125 -1.140625 5.21875 -0.863281 4.9375 -0.625 C 4.664062 -0.394531 4.335938 -0.210938 3.953125 -0.078125 C 3.566406 0.0546875 3.117188 0.125 2.609375 0.125 C 2.410156 0.125 2.21875 0.113281 2.03125 0.09375 C 1.84375 0.0703125 1.675781 0.0390625 1.53125 0 C 1.382812 -0.0390625 1.257812 -0.078125 1.15625 -0.109375 C 1.0625 -0.148438 0.988281 -0.191406 0.9375 -0.234375 C 0.894531 -0.273438 0.863281 -0.332031 0.84375 -0.40625 C 0.820312 -0.476562 0.8125 -0.570312 0.8125 -0.6875 C 0.8125 -0.789062 0.8125 -0.867188 0.8125 -0.921875 C 0.820312 -0.984375 0.832031 -1.03125 0.84375 -1.0625 C 0.863281 -1.09375 0.882812 -1.113281 0.90625 -1.125 C 0.9375 -1.144531 0.96875 -1.15625 1 -1.15625 C 1.050781 -1.15625 1.125 -1.132812 1.21875 -1.09375 C 1.3125 -1.0625 1.425781 -1.023438 1.5625 -0.984375 C 1.695312 -0.941406 1.859375 -0.90625 2.046875 -0.875 C 2.234375 -0.84375 2.445312 -0.828125 2.6875 -0.828125 C 3.125 -0.828125 3.5 -0.910156 3.8125 -1.078125 C 4.132812 -1.242188 4.394531 -1.46875 4.59375 -1.75 C 4.789062 -2.039062 4.941406 -2.375 5.046875 -2.75 C 5.148438 -3.132812 5.203125 -3.535156 5.203125 -3.953125 C 4.960938 -3.816406 4.671875 -3.691406 4.328125 -3.578125 C 3.992188 -3.472656 3.609375 -3.421875 3.171875 -3.421875 C 2.679688 -3.421875 2.269531 -3.488281 1.9375 -3.625 C 1.601562 -3.757812 1.332031 -3.941406 1.125 -4.171875 C 0.925781 -4.398438 0.78125 -4.671875 0.6875 -4.984375 C 0.601562 -5.304688 0.5625 -5.660156 0.5625 -6.046875 C 0.5625 -6.429688 0.617188 -6.800781 0.734375 -7.15625 C 0.847656 -7.507812 1.023438 -7.820312 1.265625 -8.09375 C 1.503906 -8.363281 1.8125 -8.578125 2.1875 -8.734375 C 2.5625 -8.890625 3.007812 -8.96875 3.53125 -8.96875 C 3.894531 -8.96875 4.21875 -8.921875 4.5 -8.828125 C 4.789062 -8.742188 5.039062 -8.613281 5.25 -8.4375 C 5.457031 -8.257812 5.632812 -8.046875 5.78125 -7.796875 C 5.925781 -7.546875 6.039062 -7.265625 6.125 -6.953125 C 6.21875 -6.640625 6.285156 -6.296875 6.328125 -5.921875 C 6.367188 -5.554688 6.390625 -5.171875 6.390625 -4.765625 Z M 5.1875 -4.90625 C 5.1875 -5.488281 5.144531 -5.976562 5.0625 -6.375 C 4.988281 -6.769531 4.875 -7.09375 4.71875 -7.34375 C 4.570312 -7.59375 4.390625 -7.769531 4.171875 -7.875 C 3.953125 -7.988281 3.703125 -8.046875 3.421875 -8.046875 C 3.117188 -8.046875 2.863281 -7.988281 2.65625 -7.875 C 2.445312 -7.769531 2.273438 -7.625 2.140625 -7.4375 C 2.003906 -7.257812 1.90625 -7.054688 1.84375 -6.828125 C 1.78125 -6.609375 1.75 -6.375 1.75 -6.125 C 1.75 -5.863281 1.773438 -5.617188 1.828125 -5.390625 C 1.890625 -5.171875 1.984375 -4.984375 2.109375 -4.828125 C 2.234375 -4.671875 2.398438 -4.550781 2.609375 -4.46875 C 2.816406 -4.382812 3.070312 -4.34375 3.375 -4.34375 C 3.71875 -4.34375 4.046875 -4.394531 4.359375 -4.5 C 4.679688 -4.601562 4.957031 -4.738281 5.1875 -4.90625 Z M 5.1875 -4.90625 "/>
</symbol>
<symbol overflow="visible" id="glyph1-0">
<path style="stroke:none;" d="M -8.84375 -6.6875 L 0 -6.6875 L 0 -0.296875 L -8.84375 -0.296875 Z M -0.546875 -6.09375 L -8.296875 -6.09375 L -8.296875 -0.875 L -0.546875 -0.875 Z M -5.84375 -5.25 C -5.570312 -5.25 -5.332031 -5.207031 -5.125 -5.125 C -4.914062 -5.039062 -4.738281 -4.925781 -4.59375 -4.78125 C -4.445312 -4.644531 -4.332031 -4.476562 -4.25 -4.28125 C -4.175781 -4.082031 -4.128906 -3.867188 -4.109375 -3.640625 L -3.078125 -3.609375 C -3.035156 -3.609375 -3.003906 -3.570312 -2.984375 -3.5 C -2.960938 -3.425781 -2.953125 -3.332031 -2.953125 -3.21875 C -2.953125 -3.15625 -2.953125 -3.097656 -2.953125 -3.046875 C -2.960938 -3.003906 -2.972656 -2.96875 -2.984375 -2.9375 C -2.992188 -2.90625 -3.003906 -2.878906 -3.015625 -2.859375 C -3.023438 -2.847656 -3.046875 -2.84375 -3.078125 -2.84375 L -4.328125 -2.8125 C -4.472656 -2.800781 -4.570312 -2.828125 -4.625 -2.890625 C -4.675781 -2.960938 -4.703125 -3.050781 -4.703125 -3.15625 L -4.703125 -3.28125 C -4.703125 -3.488281 -4.726562 -3.660156 -4.78125 -3.796875 C -4.84375 -3.929688 -4.921875 -4.039062 -5.015625 -4.125 C -5.109375 -4.207031 -5.222656 -4.265625 -5.359375 -4.296875 C -5.492188 -4.335938 -5.640625 -4.359375 -5.796875 -4.359375 C -6.128906 -4.359375 -6.390625 -4.265625 -6.578125 -4.078125 C -6.773438 -3.890625 -6.875 -3.585938 -6.875 -3.171875 C -6.875 -3.003906 -6.859375 -2.851562 -6.828125 -2.71875 C -6.796875 -2.582031 -6.753906 -2.457031 -6.703125 -2.34375 C -6.660156 -2.238281 -6.617188 -2.15625 -6.578125 -2.09375 C -6.546875 -2.03125 -6.53125 -1.984375 -6.53125 -1.953125 C -6.53125 -1.929688 -6.535156 -1.910156 -6.546875 -1.890625 C -6.554688 -1.878906 -6.570312 -1.867188 -6.59375 -1.859375 C -6.625 -1.847656 -6.660156 -1.835938 -6.703125 -1.828125 C -6.742188 -1.816406 -6.800781 -1.8125 -6.875 -1.8125 C -6.957031 -1.8125 -7.019531 -1.816406 -7.0625 -1.828125 C -7.113281 -1.847656 -7.160156 -1.875 -7.203125 -1.90625 C -7.234375 -1.9375 -7.269531 -2 -7.3125 -2.09375 C -7.351562 -2.1875 -7.390625 -2.296875 -7.421875 -2.421875 C -7.460938 -2.546875 -7.492188 -2.679688 -7.515625 -2.828125 C -7.546875 -2.984375 -7.5625 -3.132812 -7.5625 -3.28125 C -7.5625 -3.625 -7.515625 -3.921875 -7.421875 -4.171875 C -7.335938 -4.421875 -7.21875 -4.625 -7.0625 -4.78125 C -6.90625 -4.9375 -6.722656 -5.050781 -6.515625 -5.125 C -6.304688 -5.207031 -6.082031 -5.25 -5.84375 -5.25 Z M -1.859375 -3.75 C -1.765625 -3.75 -1.6875 -3.738281 -1.625 -3.71875 C -1.5625 -3.707031 -1.507812 -3.679688 -1.46875 -3.640625 C -1.425781 -3.609375 -1.394531 -3.554688 -1.375 -3.484375 C -1.363281 -3.421875 -1.359375 -3.34375 -1.359375 -3.25 C -1.359375 -3.144531 -1.363281 -3.0625 -1.375 -3 C -1.394531 -2.9375 -1.425781 -2.882812 -1.46875 -2.84375 C -1.507812 -2.800781 -1.5625 -2.769531 -1.625 -2.75 C -1.6875 -2.726562 -1.765625 -2.71875 -1.859375 -2.71875 C -1.960938 -2.71875 -2.046875 -2.726562 -2.109375 -2.75 C -2.171875 -2.769531 -2.222656 -2.800781 -2.265625 -2.84375 C -2.304688 -2.882812 -2.335938 -2.9375 -2.359375 -3 C -2.378906 -3.0625 -2.390625 -3.144531 -2.390625 -3.25 C -2.390625 -3.34375 -2.378906 -3.421875 -2.359375 -3.484375 C -2.335938 -3.554688 -2.304688 -3.609375 -2.265625 -3.640625 C -2.222656 -3.679688 -2.171875 -3.707031 -2.109375 -3.71875 C -2.046875 -3.738281 -1.960938 -3.75 -1.859375 -3.75 Z M 2.71875 0 Z M 2.71875 0 "/>
</symbol>
<symbol overflow="visible" id="glyph1-1">
<path style="stroke:none;" d="M -0.515625 -5.765625 C -0.421875 -5.765625 -0.34375 -5.757812 -0.28125 -5.75 C -0.21875 -5.738281 -0.164062 -5.722656 -0.125 -5.703125 C -0.0820312 -5.679688 -0.0507812 -5.65625 -0.03125 -5.625 C -0.0078125 -5.59375 0 -5.5625 0 -5.53125 L 0 -1.609375 C 0 -1.503906 -0.0351562 -1.40625 -0.109375 -1.3125 C -0.179688 -1.21875 -0.304688 -1.171875 -0.484375 -1.171875 L -8.671875 -1.171875 C -8.703125 -1.171875 -8.734375 -1.179688 -8.765625 -1.203125 C -8.796875 -1.222656 -8.816406 -1.253906 -8.828125 -1.296875 C -8.847656 -1.347656 -8.863281 -1.410156 -8.875 -1.484375 C -8.882812 -1.554688 -8.890625 -1.648438 -8.890625 -1.765625 C -8.890625 -1.878906 -8.882812 -1.972656 -8.875 -2.046875 C -8.863281 -2.117188 -8.847656 -2.175781 -8.828125 -2.21875 C -8.816406 -2.269531 -8.796875 -2.304688 -8.765625 -2.328125 C -8.734375 -2.347656 -8.703125 -2.359375 -8.671875 -2.359375 L -1.015625 -2.359375 L -1.015625 -5.53125 C -1.015625 -5.5625 -1.003906 -5.59375 -0.984375 -5.625 C -0.960938 -5.65625 -0.929688 -5.679688 -0.890625 -5.703125 C -0.859375 -5.722656 -0.8125 -5.738281 -0.75 -5.75 C -0.6875 -5.757812 -0.609375 -5.765625 -0.515625 -5.765625 Z M -0.515625 -5.765625 "/>
</symbol>
<symbol overflow="visible" id="glyph1-2">
<path style="stroke:none;" d="M -0.171875 -6.34375 C -0.128906 -6.34375 -0.0976562 -6.332031 -0.078125 -6.3125 C -0.0546875 -6.300781 -0.0351562 -6.273438 -0.015625 -6.234375 C 0.00390625 -6.191406 0.0195312 -6.132812 0.03125 -6.0625 C 0.0390625 -5.988281 0.046875 -5.894531 0.046875 -5.78125 C 0.046875 -5.664062 0.0390625 -5.570312 0.03125 -5.5 C 0.0195312 -5.425781 0.00390625 -5.367188 -0.015625 -5.328125 C -0.0351562 -5.285156 -0.0546875 -5.253906 -0.078125 -5.234375 C -0.0976562 -5.222656 -0.128906 -5.21875 -0.171875 -5.21875 L -3.78125 -5.21875 C -4.125 -5.21875 -4.398438 -5.1875 -4.609375 -5.125 C -4.828125 -5.070312 -5.015625 -4.992188 -5.171875 -4.890625 C -5.328125 -4.785156 -5.445312 -4.648438 -5.53125 -4.484375 C -5.613281 -4.316406 -5.65625 -4.125 -5.65625 -3.90625 C -5.65625 -3.625 -5.550781 -3.34375 -5.34375 -3.0625 C -5.144531 -2.78125 -4.851562 -2.484375 -4.46875 -2.171875 L -0.171875 -2.171875 C -0.128906 -2.171875 -0.0976562 -2.160156 -0.078125 -2.140625 C -0.0546875 -2.128906 -0.0351562 -2.101562 -0.015625 -2.0625 C 0.00390625 -2.019531 0.0195312 -1.960938 0.03125 -1.890625 C 0.0390625 -1.816406 0.046875 -1.722656 0.046875 -1.609375 C 0.046875 -1.492188 0.0390625 -1.398438 0.03125 -1.328125 C 0.0195312 -1.253906 0.00390625 -1.195312 -0.015625 -1.15625 C -0.0351562 -1.113281 -0.0546875 -1.082031 -0.078125 -1.0625 C -0.0976562 -1.050781 -0.128906 -1.046875 -0.171875 -1.046875 L -6.328125 -1.046875 C -6.359375 -1.046875 -6.382812 -1.050781 -6.40625 -1.0625 C -6.4375 -1.082031 -6.460938 -1.109375 -6.484375 -1.140625 C -6.503906 -1.179688 -6.515625 -1.234375 -6.515625 -1.296875 C -6.523438 -1.367188 -6.53125 -1.457031 -6.53125 -1.5625 C -6.53125 -1.65625 -6.523438 -1.734375 -6.515625 -1.796875 C -6.515625 -1.867188 -6.503906 -1.921875 -6.484375 -1.953125 C -6.460938 -1.992188 -6.4375 -2.019531 -6.40625 -2.03125 C -6.382812 -2.050781 -6.359375 -2.0625 -6.328125 -2.0625 L -5.515625 -2.0625 C -5.898438 -2.40625 -6.179688 -2.75 -6.359375 -3.09375 C -6.535156 -3.4375 -6.625 -3.785156 -6.625 -4.140625 C -6.625 -4.554688 -6.554688 -4.898438 -6.421875 -5.171875 C -6.285156 -5.453125 -6.097656 -5.679688 -5.859375 -5.859375 C -5.628906 -6.035156 -5.359375 -6.160156 -5.046875 -6.234375 C -4.734375 -6.304688 -4.359375 -6.34375 -3.921875 -6.34375 Z M -0.171875 -6.34375 "/>
</symbol>
<symbol overflow="visible" id="glyph1-3">
<path style="stroke:none;" d=""/>
</symbol>
<symbol overflow="visible" id="glyph2-0">
<path style="stroke:none;" d="M 0 -0.46875 L -9.328125 -0.46875 L -9.328125 -4.171875 L 0 -4.171875 Z M -0.46875 -0.921875 L -0.46875 -3.703125 L -8.859375 -3.703125 L -8.859375 -0.921875 Z M -0.46875 -0.921875 "/>
</symbol>
<symbol overflow="visible" id="glyph2-1">
<path style="stroke:none;" d="M -6.28125 -6.84375 L -1.03125 -3.046875 C -0.84375 -3.046875 -0.632812 -3.054688 -0.40625 -3.078125 C -0.1875 -3.097656 0.0703125 -3.132812 0.375 -3.1875 C 0.675781 -3.238281 0.925781 -3.328125 1.125 -3.453125 C 1.320312 -3.585938 1.421875 -3.742188 1.421875 -3.921875 C 1.421875 -4.421875 1.070312 -4.75 0.375 -4.90625 L 0.578125 -5.25 C 0.804688 -5.207031 1.035156 -5.148438 1.265625 -5.078125 C 1.503906 -5.003906 1.75 -4.90625 2 -4.78125 C 2.257812 -4.65625 2.472656 -4.488281 2.640625 -4.28125 C 2.804688 -4.070312 2.890625 -3.835938 2.890625 -3.578125 C 2.890625 -2.910156 2.195312 -2.578125 0.8125 -2.578125 C 0.375 -2.578125 -0.0351562 -2.59375 -0.421875 -2.625 L -0.421875 -2.609375 L 2.671875 -0.375 L 2.671875 1.578125 L -2.875 -2.40625 C -2.9375 -2.414062 -3.035156 -2.421875 -3.171875 -2.421875 C -3.628906 -2.421875 -4.050781 -2.332031 -4.4375 -2.15625 C -4.832031 -1.988281 -5.03125 -1.726562 -5.03125 -1.375 C -5.03125 -0.863281 -4.710938 -0.519531 -4.078125 -0.34375 L -4.25 -0.015625 C -4.5625 -0.0976562 -4.859375 -0.191406 -5.140625 -0.296875 C -5.421875 -0.410156 -5.710938 -0.597656 -6.015625 -0.859375 C -6.316406 -1.128906 -6.46875 -1.425781 -6.46875 -1.75 C -6.46875 -2.488281 -5.703125 -2.859375 -4.171875 -2.859375 C -4.035156 -2.859375 -3.773438 -2.84375 -3.390625 -2.8125 L -6.28125 -4.890625 Z M -6.28125 -6.84375 "/>
</symbol>
<symbol overflow="visible" id="glyph3-0">
<path style="stroke:none;" d="M -5.890625 -4.453125 L 0 -4.453125 L 0 -0.203125 L -5.890625 -0.203125 Z M -0.375 -4.0625 L -5.53125 -4.0625 L -5.53125 -0.59375 L -0.375 -0.59375 Z M -3.890625 -3.5 C -3.710938 -3.5 -3.550781 -3.46875 -3.40625 -3.40625 C -3.269531 -3.351562 -3.15625 -3.28125 -3.0625 -3.1875 C -2.96875 -3.09375 -2.890625 -2.976562 -2.828125 -2.84375 C -2.773438 -2.71875 -2.742188 -2.578125 -2.734375 -2.421875 L -2.046875 -2.40625 C -2.015625 -2.40625 -1.992188 -2.378906 -1.984375 -2.328125 C -1.972656 -2.285156 -1.96875 -2.222656 -1.96875 -2.140625 C -1.96875 -2.097656 -1.96875 -2.0625 -1.96875 -2.03125 C -1.976562 -2 -1.984375 -1.972656 -1.984375 -1.953125 C -1.992188 -1.929688 -2 -1.914062 -2 -1.90625 C -2.007812 -1.90625 -2.023438 -1.90625 -2.046875 -1.90625 L -2.890625 -1.875 C -2.984375 -1.875 -3.046875 -1.894531 -3.078125 -1.9375 C -3.117188 -1.976562 -3.140625 -2.035156 -3.140625 -2.109375 L -3.140625 -2.1875 C -3.140625 -2.320312 -3.15625 -2.4375 -3.1875 -2.53125 C -3.226562 -2.625 -3.28125 -2.695312 -3.34375 -2.75 C -3.40625 -2.800781 -3.476562 -2.835938 -3.5625 -2.859375 C -3.65625 -2.890625 -3.753906 -2.90625 -3.859375 -2.90625 C -4.078125 -2.90625 -4.25 -2.84375 -4.375 -2.71875 C -4.507812 -2.59375 -4.578125 -2.390625 -4.578125 -2.109375 C -4.578125 -1.992188 -4.566406 -1.890625 -4.546875 -1.796875 C -4.523438 -1.710938 -4.5 -1.632812 -4.46875 -1.5625 C -4.4375 -1.5 -4.410156 -1.441406 -4.390625 -1.390625 C -4.367188 -1.347656 -4.359375 -1.316406 -4.359375 -1.296875 C -4.359375 -1.285156 -4.359375 -1.273438 -4.359375 -1.265625 C -4.367188 -1.253906 -4.378906 -1.242188 -4.390625 -1.234375 C -4.410156 -1.222656 -4.4375 -1.21875 -4.46875 -1.21875 C -4.5 -1.21875 -4.535156 -1.21875 -4.578125 -1.21875 C -4.628906 -1.21875 -4.671875 -1.21875 -4.703125 -1.21875 C -4.742188 -1.226562 -4.773438 -1.242188 -4.796875 -1.265625 C -4.816406 -1.285156 -4.835938 -1.328125 -4.859375 -1.390625 C -4.890625 -1.453125 -4.914062 -1.523438 -4.9375 -1.609375 C -4.96875 -1.691406 -4.992188 -1.78125 -5.015625 -1.875 C -5.035156 -1.976562 -5.046875 -2.082031 -5.046875 -2.1875 C -5.046875 -2.414062 -5.015625 -2.613281 -4.953125 -2.78125 C -4.890625 -2.945312 -4.804688 -3.082031 -4.703125 -3.1875 C -4.597656 -3.289062 -4.472656 -3.367188 -4.328125 -3.421875 C -4.191406 -3.472656 -4.046875 -3.5 -3.890625 -3.5 Z M -1.25 -2.5 C -1.175781 -2.5 -1.117188 -2.492188 -1.078125 -2.484375 C -1.035156 -2.472656 -1 -2.453125 -0.96875 -2.421875 C -0.945312 -2.398438 -0.929688 -2.367188 -0.921875 -2.328125 C -0.910156 -2.285156 -0.90625 -2.226562 -0.90625 -2.15625 C -0.90625 -2.09375 -0.910156 -2.039062 -0.921875 -2 C -0.929688 -1.957031 -0.945312 -1.921875 -0.96875 -1.890625 C -1 -1.859375 -1.035156 -1.835938 -1.078125 -1.828125 C -1.117188 -1.816406 -1.175781 -1.8125 -1.25 -1.8125 C -1.3125 -1.8125 -1.363281 -1.816406 -1.40625 -1.828125 C -1.445312 -1.835938 -1.476562 -1.859375 -1.5 -1.890625 C -1.53125 -1.921875 -1.550781 -1.957031 -1.5625 -2 C -1.582031 -2.039062 -1.59375 -2.09375 -1.59375 -2.15625 C -1.59375 -2.226562 -1.582031 -2.285156 -1.5625 -2.328125 C -1.550781 -2.367188 -1.53125 -2.398438 -1.5 -2.421875 C -1.476562 -2.453125 -1.445312 -2.472656 -1.40625 -2.484375 C -1.363281 -2.492188 -1.3125 -2.5 -1.25 -2.5 Z M 1.8125 0 Z M 1.8125 0 "/>
</symbol>
<symbol overflow="visible" id="glyph3-1">
<path style="stroke:none;" d="M -1.65625 -3.953125 C -1.375 -3.953125 -1.125 -3.898438 -0.90625 -3.796875 C -0.695312 -3.691406 -0.515625 -3.550781 -0.359375 -3.375 C -0.210938 -3.195312 -0.0976562 -2.984375 -0.015625 -2.734375 C 0.0546875 -2.492188 0.09375 -2.226562 0.09375 -1.9375 C 0.09375 -1.75 0.0703125 -1.566406 0.03125 -1.390625 C 0 -1.222656 -0.0351562 -1.070312 -0.078125 -0.9375 C -0.128906 -0.8125 -0.179688 -0.703125 -0.234375 -0.609375 C -0.285156 -0.523438 -0.328125 -0.460938 -0.359375 -0.421875 C -0.398438 -0.390625 -0.445312 -0.363281 -0.5 -0.34375 C -0.5625 -0.332031 -0.640625 -0.328125 -0.734375 -0.328125 C -0.796875 -0.328125 -0.847656 -0.328125 -0.890625 -0.328125 C -0.941406 -0.335938 -0.976562 -0.347656 -1 -0.359375 C -1.03125 -0.367188 -1.050781 -0.382812 -1.0625 -0.40625 C -1.070312 -0.425781 -1.078125 -0.445312 -1.078125 -0.46875 C -1.078125 -0.507812 -1.050781 -0.566406 -1 -0.640625 C -0.945312 -0.722656 -0.890625 -0.820312 -0.828125 -0.9375 C -0.773438 -1.0625 -0.71875 -1.207031 -0.65625 -1.375 C -0.601562 -1.550781 -0.578125 -1.753906 -0.578125 -1.984375 C -0.578125 -2.148438 -0.597656 -2.300781 -0.640625 -2.4375 C -0.691406 -2.582031 -0.757812 -2.707031 -0.84375 -2.8125 C -0.925781 -2.914062 -1.023438 -2.992188 -1.140625 -3.046875 C -1.265625 -3.097656 -1.40625 -3.125 -1.5625 -3.125 C -1.726562 -3.125 -1.867188 -3.085938 -1.984375 -3.015625 C -2.109375 -2.941406 -2.210938 -2.84375 -2.296875 -2.71875 C -2.390625 -2.59375 -2.472656 -2.445312 -2.546875 -2.28125 C -2.628906 -2.125 -2.707031 -1.960938 -2.78125 -1.796875 C -2.851562 -1.628906 -2.9375 -1.46875 -3.03125 -1.3125 C -3.125 -1.15625 -3.234375 -1.015625 -3.359375 -0.890625 C -3.492188 -0.765625 -3.644531 -0.660156 -3.8125 -0.578125 C -3.988281 -0.503906 -4.195312 -0.46875 -4.4375 -0.46875 C -4.6875 -0.46875 -4.90625 -0.507812 -5.09375 -0.59375 C -5.289062 -0.6875 -5.453125 -0.8125 -5.578125 -0.96875 C -5.710938 -1.132812 -5.8125 -1.328125 -5.875 -1.546875 C -5.945312 -1.765625 -5.984375 -2.003906 -5.984375 -2.265625 C -5.984375 -2.390625 -5.96875 -2.515625 -5.9375 -2.640625 C -5.914062 -2.773438 -5.882812 -2.898438 -5.84375 -3.015625 C -5.8125 -3.140625 -5.769531 -3.242188 -5.71875 -3.328125 C -5.675781 -3.421875 -5.640625 -3.484375 -5.609375 -3.515625 C -5.585938 -3.546875 -5.566406 -3.566406 -5.546875 -3.578125 C -5.523438 -3.585938 -5.5 -3.59375 -5.46875 -3.59375 C -5.445312 -3.601562 -5.414062 -3.609375 -5.375 -3.609375 C -5.34375 -3.609375 -5.300781 -3.609375 -5.25 -3.609375 C -5.195312 -3.609375 -5.144531 -3.609375 -5.09375 -3.609375 C -5.050781 -3.609375 -5.015625 -3.601562 -4.984375 -3.59375 C -4.960938 -3.582031 -4.941406 -3.566406 -4.921875 -3.546875 C -4.910156 -3.535156 -4.90625 -3.519531 -4.90625 -3.5 C -4.90625 -3.457031 -4.925781 -3.398438 -4.96875 -3.328125 C -5.007812 -3.265625 -5.054688 -3.179688 -5.109375 -3.078125 C -5.171875 -2.972656 -5.222656 -2.847656 -5.265625 -2.703125 C -5.304688 -2.566406 -5.328125 -2.410156 -5.328125 -2.234375 C -5.328125 -2.066406 -5.304688 -1.921875 -5.265625 -1.796875 C -5.222656 -1.679688 -5.164062 -1.582031 -5.09375 -1.5 C -5.019531 -1.425781 -4.929688 -1.367188 -4.828125 -1.328125 C -4.722656 -1.285156 -4.617188 -1.265625 -4.515625 -1.265625 C -4.347656 -1.265625 -4.203125 -1.300781 -4.078125 -1.375 C -3.960938 -1.457031 -3.859375 -1.5625 -3.765625 -1.6875 C -3.679688 -1.8125 -3.597656 -1.953125 -3.515625 -2.109375 C -3.441406 -2.273438 -3.363281 -2.441406 -3.28125 -2.609375 C -3.207031 -2.773438 -3.125 -2.9375 -3.03125 -3.09375 C -2.9375 -3.257812 -2.828125 -3.40625 -2.703125 -3.53125 C -2.578125 -3.65625 -2.425781 -3.753906 -2.25 -3.828125 C -2.082031 -3.910156 -1.882812 -3.953125 -1.65625 -3.953125 Z M -1.65625 -3.953125 "/>
</symbol>
<symbol overflow="visible" id="glyph3-2">
<path style="stroke:none;" d="M -0.109375 -3.78125 C -0.0664062 -3.78125 -0.0351562 -3.769531 -0.015625 -3.75 C -0.00390625 -3.726562 0.00390625 -3.691406 0.015625 -3.640625 C 0.0234375 -3.597656 0.03125 -3.539062 0.03125 -3.46875 C 0.03125 -3.382812 0.0234375 -3.316406 0.015625 -3.265625 C 0.00390625 -3.222656 -0.00390625 -3.191406 -0.015625 -3.171875 C -0.0351562 -3.148438 -0.0664062 -3.140625 -0.109375 -3.140625 L -0.515625 -3.140625 C -0.328125 -2.960938 -0.175781 -2.757812 -0.0625 -2.53125 C 0.0390625 -2.3125 0.09375 -2.082031 0.09375 -1.84375 C 0.09375 -1.625 0.0625 -1.425781 0 -1.25 C -0.0507812 -1.082031 -0.128906 -0.9375 -0.234375 -0.8125 C -0.347656 -0.6875 -0.476562 -0.585938 -0.625 -0.515625 C -0.78125 -0.453125 -0.957031 -0.421875 -1.15625 -0.421875 C -1.382812 -0.421875 -1.582031 -0.46875 -1.75 -0.5625 C -1.925781 -0.65625 -2.070312 -0.789062 -2.1875 -0.96875 C -2.300781 -1.144531 -2.382812 -1.359375 -2.4375 -1.609375 C -2.488281 -1.867188 -2.515625 -2.15625 -2.515625 -2.46875 L -2.515625 -3.03125 L -2.84375 -3.03125 C -3 -3.03125 -3.132812 -3.015625 -3.25 -2.984375 C -3.375 -2.953125 -3.476562 -2.898438 -3.5625 -2.828125 C -3.644531 -2.753906 -3.707031 -2.65625 -3.75 -2.53125 C -3.789062 -2.414062 -3.8125 -2.269531 -3.8125 -2.09375 C -3.8125 -1.914062 -3.785156 -1.75 -3.734375 -1.59375 C -3.691406 -1.445312 -3.644531 -1.316406 -3.59375 -1.203125 C -3.539062 -1.097656 -3.492188 -1.007812 -3.453125 -0.9375 C -3.410156 -0.863281 -3.390625 -0.804688 -3.390625 -0.765625 C -3.390625 -0.742188 -3.394531 -0.722656 -3.40625 -0.703125 C -3.414062 -0.679688 -3.429688 -0.664062 -3.453125 -0.65625 C -3.484375 -0.644531 -3.515625 -0.632812 -3.546875 -0.625 C -3.585938 -0.625 -3.628906 -0.625 -3.671875 -0.625 C -3.753906 -0.625 -3.816406 -0.628906 -3.859375 -0.640625 C -3.898438 -0.648438 -3.941406 -0.675781 -3.984375 -0.71875 C -4.023438 -0.757812 -4.070312 -0.828125 -4.125 -0.921875 C -4.175781 -1.023438 -4.222656 -1.140625 -4.265625 -1.265625 C -4.304688 -1.398438 -4.34375 -1.546875 -4.375 -1.703125 C -4.40625 -1.859375 -4.421875 -2.015625 -4.421875 -2.171875 C -4.421875 -2.460938 -4.382812 -2.710938 -4.3125 -2.921875 C -4.25 -3.128906 -4.148438 -3.296875 -4.015625 -3.421875 C -3.890625 -3.546875 -3.726562 -3.632812 -3.53125 -3.6875 C -3.34375 -3.75 -3.125 -3.78125 -2.875 -3.78125 Z M -1.984375 -3.03125 L -1.984375 -2.390625 C -1.984375 -2.191406 -1.960938 -2.015625 -1.921875 -1.859375 C -1.890625 -1.703125 -1.835938 -1.570312 -1.765625 -1.46875 C -1.703125 -1.375 -1.625 -1.300781 -1.53125 -1.25 C -1.4375 -1.207031 -1.328125 -1.1875 -1.203125 -1.1875 C -0.984375 -1.1875 -0.8125 -1.253906 -0.6875 -1.390625 C -0.5625 -1.523438 -0.5 -1.710938 -0.5 -1.953125 C -0.5 -2.148438 -0.546875 -2.332031 -0.640625 -2.5 C -0.742188 -2.675781 -0.898438 -2.851562 -1.109375 -3.03125 Z M -1.984375 -3.03125 "/>
</symbol>
<symbol overflow="visible" id="glyph3-3">
<path style="stroke:none;" d="M -0.421875 -2.828125 C -0.328125 -2.828125 -0.253906 -2.820312 -0.203125 -2.8125 C -0.148438 -2.800781 -0.109375 -2.78125 -0.078125 -2.75 C -0.0546875 -2.726562 -0.0351562 -2.691406 -0.015625 -2.640625 C 0.00390625 -2.597656 0.0195312 -2.546875 0.03125 -2.484375 C 0.0390625 -2.421875 0.0507812 -2.351562 0.0625 -2.28125 C 0.0703125 -2.207031 0.078125 -2.140625 0.078125 -2.078125 C 0.078125 -1.859375 0.0507812 -1.671875 0 -1.515625 C -0.0625 -1.367188 -0.148438 -1.242188 -0.265625 -1.140625 C -0.378906 -1.046875 -0.519531 -0.976562 -0.6875 -0.9375 C -0.863281 -0.894531 -1.070312 -0.875 -1.3125 -0.875 L -3.703125 -0.875 L -3.703125 -0.296875 C -3.703125 -0.253906 -3.726562 -0.21875 -3.78125 -0.1875 C -3.832031 -0.164062 -3.910156 -0.15625 -4.015625 -0.15625 C -4.078125 -0.15625 -4.125 -0.15625 -4.15625 -0.15625 C -4.195312 -0.164062 -4.226562 -0.175781 -4.25 -0.1875 C -4.28125 -0.195312 -4.300781 -0.210938 -4.3125 -0.234375 C -4.320312 -0.253906 -4.328125 -0.28125 -4.328125 -0.3125 L -4.328125 -0.875 L -5.3125 -0.875 C -5.332031 -0.875 -5.347656 -0.878906 -5.359375 -0.890625 C -5.378906 -0.898438 -5.394531 -0.921875 -5.40625 -0.953125 C -5.425781 -0.984375 -5.4375 -1.019531 -5.4375 -1.0625 C -5.445312 -1.113281 -5.453125 -1.175781 -5.453125 -1.25 C -5.453125 -1.320312 -5.445312 -1.378906 -5.4375 -1.421875 C -5.4375 -1.472656 -5.425781 -1.515625 -5.40625 -1.546875 C -5.394531 -1.578125 -5.378906 -1.597656 -5.359375 -1.609375 C -5.347656 -1.617188 -5.332031 -1.625 -5.3125 -1.625 L -4.328125 -1.625 L -4.328125 -2.671875 C -4.328125 -2.703125 -4.320312 -2.722656 -4.3125 -2.734375 C -4.300781 -2.753906 -4.28125 -2.769531 -4.25 -2.78125 C -4.226562 -2.800781 -4.195312 -2.8125 -4.15625 -2.8125 C -4.125 -2.820312 -4.078125 -2.828125 -4.015625 -2.828125 C -3.910156 -2.828125 -3.832031 -2.8125 -3.78125 -2.78125 C -3.726562 -2.757812 -3.703125 -2.722656 -3.703125 -2.671875 L -3.703125 -1.625 L -1.421875 -1.625 C -1.140625 -1.625 -0.925781 -1.664062 -0.78125 -1.75 C -0.632812 -1.832031 -0.5625 -1.984375 -0.5625 -2.203125 C -0.5625 -2.273438 -0.566406 -2.335938 -0.578125 -2.390625 C -0.597656 -2.441406 -0.613281 -2.488281 -0.625 -2.53125 C -0.644531 -2.570312 -0.660156 -2.609375 -0.671875 -2.640625 C -0.679688 -2.671875 -0.6875 -2.695312 -0.6875 -2.71875 C -0.6875 -2.738281 -0.679688 -2.753906 -0.671875 -2.765625 C -0.671875 -2.773438 -0.660156 -2.785156 -0.640625 -2.796875 C -0.617188 -2.804688 -0.585938 -2.8125 -0.546875 -2.8125 C -0.515625 -2.820312 -0.472656 -2.828125 -0.421875 -2.828125 Z M -0.421875 -2.828125 "/>
</symbol>
</g>
</defs>
<g id="surface1">
<path style="fill:none;stroke-width:762;stroke-linecap:butt;stroke-linejoin:round;stroke:rgb(100%,0%,0%);stroke-opacity:1;stroke-dasharray:3048,2286;stroke-miterlimit:8;" d="M 263580.020193 72752.107823 L 257535.601854 60923.22479 " transform="matrix(0.0019685,0,0,0.0019685,-418.736176,-110.864868)"/>
<path style="fill-rule:evenodd;fill:rgb(100%,0%,0%);fill-opacity:1;stroke-width:762;stroke-linecap:butt;stroke-linejoin:miter;stroke:rgb(100%,0%,0%);stroke-opacity:1;stroke-miterlimit:10;" d="M 258656.775972 60349.739268 L 255961.989332 57843.468631 L 256414.427737 61494.725933 Z M 258656.775972 60349.739268 " transform="matrix(0.0019685,0,0,0.0019685,-418.736176,-110.864868)"/>
<path style="fill:none;stroke-width:762;stroke-linecap:butt;stroke-linejoin:round;stroke:rgb(0%,0%,0%);stroke-opacity:1;stroke-miterlimit:8;" d="M 248272.520828 70059.305563 L 248272.520828 185187.020193 " transform="matrix(0.0019685,0,0,0.0019685,-418.736176,-110.864868)"/>
<path style="fill:none;stroke-width:762;stroke-linecap:butt;stroke-linejoin:round;stroke:rgb(0%,0%,0%);stroke-opacity:1;stroke-miterlimit:8;" d="M 343393.726695 184964.769749 L 248472.943104 184964.769749 " transform="matrix(0.0019685,0,0,0.0019685,-418.736176,-110.864868)"/>
<g style="fill:rgb(0%,0%,0%);fill-opacity:1;">
  <use xlink:href="#glyph0-1" x="63.525038" y="273.662452"/>
  <use xlink:href="#glyph0-2" x="70.609036" y="273.662452"/>
  <use xlink:href="#glyph0-1" x="74.137036" y="273.662452"/>
  <use xlink:href="#glyph0-3" x="81.221034" y="273.662452"/>
</g>
<g style="fill:rgb(0%,0%,0%);fill-opacity:1;">
  <use xlink:href="#glyph0-1" x="99.291843" y="273.662452"/>
  <use xlink:href="#glyph0-2" x="106.375841" y="273.662452"/>
  <use xlink:href="#glyph0-1" x="109.90384" y="273.662452"/>
  <use xlink:href="#glyph0-4" x="116.987839" y="273.662452"/>
</g>
<g style="fill:rgb(0%,0%,0%);fill-opacity:1;">
  <use xlink:href="#glyph0-1" x="135.058678" y="273.662452"/>
  <use xlink:href="#glyph0-2" x="142.142676" y="273.662452"/>
  <use xlink:href="#glyph0-1" x="145.670676" y="273.662452"/>
  <use xlink:href="#glyph0-5" x="152.754674" y="273.662452"/>
</g>
<g style="fill:rgb(0%,0%,0%);fill-opacity:1;">
  <use xlink:href="#glyph0-1" x="170.825513" y="273.662452"/>
  <use xlink:href="#glyph0-2" x="177.909512" y="273.662452"/>
  <use xlink:href="#glyph0-1" x="181.437511" y="273.662452"/>
  <use xlink:href="#glyph0-6" x="188.52151" y="273.662452"/>
</g>
<g style="fill:rgb(0%,0%,0%);fill-opacity:1;">
  <use xlink:href="#glyph0-1" x="206.592349" y="273.662452"/>
  <use xlink:href="#glyph0-2" x="213.676347" y="273.662452"/>
  <use xlink:href="#glyph0-3" x="217.204346" y="273.662452"/>
  <use xlink:href="#glyph0-7" x="224.288345" y="273.662452"/>
</g>
<g style="fill:rgb(0%,0%,0%);fill-opacity:1;">
  <use xlink:href="#glyph0-1" x="242.359184" y="273.662452"/>
  <use xlink:href="#glyph0-2" x="249.443182" y="273.662452"/>
  <use xlink:href="#glyph0-3" x="252.971182" y="273.662452"/>
  <use xlink:href="#glyph0-3" x="260.05518" y="273.662452"/>
</g>
<g style="fill:rgb(0%,0%,0%);fill-opacity:1;">
  <use xlink:href="#glyph0-1" x="120.806082" y="294.164852"/>
  <use xlink:href="#glyph0-7" x="127.89008" y="294.164852"/>
  <use xlink:href="#glyph0-7" x="134.974079" y="294.164852"/>
  <use xlink:href="#glyph0-8" x="142.058077" y="294.164852"/>
  <use xlink:href="#glyph0-9" x="145.222077" y="294.164852"/>
  <use xlink:href="#glyph0-8" x="150.626076" y="294.164852"/>
  <use xlink:href="#glyph0-10" x="153.790075" y="294.164852"/>
  <use xlink:href="#glyph0-8" x="160.608074" y="294.164852"/>
  <use xlink:href="#glyph0-11" x="163.772073" y="294.164852"/>
  <use xlink:href="#glyph0-12" x="168.014072" y="294.164852"/>
  <use xlink:href="#glyph0-13" x="175.28007" y="294.164852"/>
</g>
<g style="fill:rgb(0%,0%,0%);fill-opacity:1;">
  <use xlink:href="#glyph1-1" x="20.189152" y="168.333992"/>
  <use xlink:href="#glyph1-2" x="20.189152" y="162.453993"/>
  <use xlink:href="#glyph1-3" x="20.189152" y="155.103995"/>
</g>
<g style="fill:rgb(0%,0%,0%);fill-opacity:1;">
  <use xlink:href="#glyph2-1" x="20.189152" y="151.936924"/>
</g>
<g style="fill:rgb(0%,0%,0%);fill-opacity:1;">
  <use xlink:href="#glyph3-1" x="14.939163" y="145.192711"/>
  <use xlink:href="#glyph3-2" x="14.939163" y="140.908709"/>
</g>
<g style="fill:rgb(0%,0%,0%);fill-opacity:1;">
  <use xlink:href="#glyph3-3" x="14.939163" y="136.522042"/>
</g>
<path style="fill:none;stroke-width:762;stroke-linecap:butt;stroke-linejoin:round;stroke:rgb(0%,0%,0%);stroke-opacity:1;stroke-miterlimit:8;" d="M 317342.799594 181367.090678 L 265443.352045 76379.552578 " transform="matrix(0.0019685,0,0,0.0019685,-418.736176,-110.864868)"/>
<path style="fill-rule:evenodd;fill:rgb(100%,100%,100%);fill-opacity:1;stroke-width:381;stroke-linecap:butt;stroke-linejoin:round;stroke:rgb(0%,0%,0%);stroke-opacity:1;stroke-miterlimit:8;" d="M 268892.202692 86470.119634 C 268892.202692 85817.258954 269422.031877 85289.414148 270074.892558 85289.414148 C 270388.424435 85289.414148 270688.065659 85414.430023 270910.316104 85634.696088 C 271132.566548 85856.946533 271257.582423 86156.587757 271257.582423 86470.119634 C 271257.582423 87122.980315 270727.753239 87652.8095 270074.892558 87652.8095 C 269422.031877 87652.8095 268892.202692 87122.980315 268892.202692 86470.119634 Z M 268892.202692 86470.119634 " transform="matrix(0.0019685,0,0,0.0019685,-418.736176,-110.864868)"/>
<path style="fill-rule:evenodd;fill:rgb(100%,100%,100%);fill-opacity:1;stroke-width:381;stroke-linecap:butt;stroke-linejoin:round;stroke:rgb(0%,0%,0%);stroke-opacity:1;stroke-miterlimit:8;" d="M 281282.664973 109867.932055 C 281282.664973 109215.071374 281810.509779 108685.242189 282463.37046 108685.242189 C 282776.902337 108685.242189 283078.52794 108810.258065 283300.778385 109032.508509 C 283521.04445 109254.758954 283646.060325 109554.400178 283646.060325 109867.932055 C 283646.060325 110520.792736 283116.23114 111050.62192 282463.37046 111050.62192 C 281810.509779 111050.62192 281282.664973 110520.792736 281282.664973 109867.932055 Z M 281282.664973 109867.932055 " transform="matrix(0.0019685,0,0,0.0019685,-418.736176,-110.864868)"/>
<path style="fill-rule:evenodd;fill:rgb(100%,100%,100%);fill-opacity:1;stroke-width:381;stroke-linecap:butt;stroke-linejoin:round;stroke:rgb(0%,0%,0%);stroke-opacity:1;stroke-miterlimit:8;" d="M 296522.695453 143001.107696 C 296522.695453 142348.247015 297050.540259 141820.40221 297703.40094 141820.40221 C 298016.932817 141820.40221 298318.55842 141943.433706 298540.808865 142165.68415 C 298761.07493 142387.934595 298886.090805 142687.575819 298886.090805 143001.107696 C 298886.090805 143653.968377 298356.261621 144183.797562 297703.40094 144183.797562 C 297050.540259 144183.797562 296522.695453 143653.968377 296522.695453 143001.107696 Z M 296522.695453 143001.107696 " transform="matrix(0.0019685,0,0,0.0019685,-418.736176,-110.864868)"/>
<path style="fill-rule:evenodd;fill:rgb(100%,100%,100%);fill-opacity:1;stroke-width:381;stroke-linecap:butt;stroke-linejoin:round;stroke:rgb(0%,0%,0%);stroke-opacity:1;stroke-miterlimit:8;" d="M 314020.9492 177418.17653 C 314020.9492 176765.31585 314550.778385 176235.486665 315203.639065 176235.486665 C 315515.186563 176235.486665 315816.812167 176360.50254 316039.062611 176582.752985 C 316259.328677 176803.01905 316384.344552 177104.644653 316384.344552 177418.17653 C 316384.344552 178071.037211 315854.515367 178598.882017 315203.639065 178598.882017 C 314550.778385 178598.882017 314020.9492 178071.037211 314020.9492 177418.17653 Z M 314020.9492 177418.17653 " transform="matrix(0.0019685,0,0,0.0019685,-418.736176,-110.864868)"/>
<g style="fill:rgb(0%,0%,0%);fill-opacity:1;">
  <use xlink:href="#glyph0-14" x="30.309284" y="257.604913"/>
  <use xlink:href="#glyph0-15" x="34.593283" y="257.604913"/>
  <use xlink:href="#glyph0-2" x="41.677281" y="257.604913"/>
  <use xlink:href="#glyph0-3" x="45.205281" y="257.604913"/>
  <use xlink:href="#glyph0-7" x="52.289279" y="257.604913"/>
</g>
<g style="fill:rgb(0%,0%,0%);fill-opacity:1;">
  <use xlink:href="#glyph0-14" x="30.309284" y="220.245276"/>
  <use xlink:href="#glyph0-15" x="34.593283" y="220.245276"/>
  <use xlink:href="#glyph0-2" x="41.677281" y="220.245276"/>
  <use xlink:href="#glyph0-1" x="45.205281" y="220.245276"/>
  <use xlink:href="#glyph0-5" x="52.289279" y="220.245276"/>
</g>
<g style="fill:rgb(0%,0%,0%);fill-opacity:1;">
  <use xlink:href="#glyph0-14" x="30.309284" y="182.88564"/>
  <use xlink:href="#glyph0-15" x="34.593283" y="182.88564"/>
  <use xlink:href="#glyph0-2" x="41.677281" y="182.88564"/>
  <use xlink:href="#glyph0-1" x="45.205281" y="182.88564"/>
  <use xlink:href="#glyph0-3" x="52.289279" y="182.88564"/>
</g>
<g style="fill:rgb(0%,0%,0%);fill-opacity:1;">
  <use xlink:href="#glyph0-14" x="30.309284" y="145.525974"/>
  <use xlink:href="#glyph0-15" x="34.593283" y="145.525974"/>
  <use xlink:href="#glyph0-2" x="41.677281" y="145.525974"/>
  <use xlink:href="#glyph0-7" x="45.205281" y="145.525974"/>
  <use xlink:href="#glyph0-6" x="52.289279" y="145.525974"/>
</g>
<g style="fill:rgb(0%,0%,0%);fill-opacity:1;">
  <use xlink:href="#glyph0-14" x="30.309284" y="108.166368"/>
  <use xlink:href="#glyph0-15" x="34.593283" y="108.166368"/>
  <use xlink:href="#glyph0-2" x="41.677281" y="108.166368"/>
  <use xlink:href="#glyph0-7" x="45.205281" y="108.166368"/>
  <use xlink:href="#glyph0-4" x="52.289279" y="108.166368"/>
</g>
<g style="fill:rgb(0%,0%,0%);fill-opacity:1;">
  <use xlink:href="#glyph0-14" x="30.309284" y="70.806732"/>
  <use xlink:href="#glyph0-15" x="34.593283" y="70.806732"/>
  <use xlink:href="#glyph0-2" x="41.677281" y="70.806732"/>
  <use xlink:href="#glyph0-7" x="45.205281" y="70.806732"/>
  <use xlink:href="#glyph0-7" x="52.289279" y="70.806732"/>
</g>
<g style="fill:rgb(0%,0%,0%);fill-opacity:1;">
  <use xlink:href="#glyph0-14" x="30.309284" y="33.447065"/>
  <use xlink:href="#glyph0-3" x="34.593283" y="33.447065"/>
  <use xlink:href="#glyph0-2" x="41.677281" y="33.447065"/>
  <use xlink:href="#glyph0-16" x="45.205281" y="33.447065"/>
  <use xlink:href="#glyph0-5" x="52.289279" y="33.447065"/>
</g>
</g>
</svg>
