graph TB
  AMP["<b>10x Amplifier</b> <br> PS 776"]
  DIS["<b>Discriminator</b> <br> CAEN 844"]
  CD3["<b>1-fold Coincidence</b> <br> Phillips 754"]
  GATE["<b>Gate Generator<b> <br> LeCroy 222"]
  DAQ["<b>Digitizer</b> <br> Struck SIS3316"]

AMP--"Bottom <br> PMT"-->DIS
DIS-->CD3
CD3--TRIG-->DAQ
CD3--TRIG-->GATE
GATE--VETO-->CD3