graph TB
  DET["Detector"]
  FIL["5 MHz Low Pass Filter <br> MiniCircuits BLP 5+"]
  AMP["10x Amplifier <br> Phillips 776"]
  DAQ["Digitizer <br> Struck SIS3316"]

DET--SiPMs-->FIL
FIL--SiPMs-->AMP
DET--"Bot PMT"-->AMP
AMP-->DAQ
