graph TB
  FIFO1["<b>Fan Out</b> <br> CAEN N625"]
  AMP0["<b>10x Amplifier</b> <br> LeCroy 612A"]
  AMP1["<b>10x Amplifier</b> <br> LeCroy 612A"]
  DIS["<b>Discriminator</b> <br> LeCroy 821"]
  CD3["<b>3-fold Coincidence</b> <br> Phillips 754"]
  CD1["<b>1-fold Coincidence</b> <br> Phillips 754"]
  GATE1["<b>Gate Generator</b> <br> LeCroy 222"]
  DAQ1["<b>Digitizer</b> <br> Struck SIS3316"]

AMP1--"All <br> PMTs"-->FIFO1
FIFO1--"Top <br> PMTs"-->AMP0
FIFO1--"All <br> PMTs"-->DAQ1
AMP0-->DIS
DIS-->CD3
CD3-->GATE1
CD3-->CD1
CD3-->DAQ1
GATE1--VETO-->CD1
CD1--TRIG-->DAQ1