graph TD
    AMP1["<b>10x Amplifier</b> <br> LeCroy 612A"]
    FIFO1["<b>Fan Out 1</b> <br> CAEN N625"]
    FIFO2["<b>Fan Out 2</b> <br> CAEN N625"]
    DIS1["<b>Discriminator 1</b> <br> CAEN 844"]
    DIS2["<b>Discriminator 2</b> <br> LeCroy 821"]
    COIN2["<b>2-fold Coincidence</b> <br> Phillips 754"]
    DELAY1["<b>Delay Generator</b> <br> Phillips 794"]
    DAQ["<b>Digitizer</b> <br> Struck SIS3316"]
    GATE1["<b>Gate Generator</b> <br> LeCroy 222"]

AMP1--"Bottom PMT"-->FIFO1
FIFO1-->FIFO2
FIFO1-->FIFO2
FIFO2--"Bottom PMT <br> (Doubled)"-->DIS1
DIS1-->DIS2
DIS1-->COIN2
DIS2--VETO-->COIN2
DIS2-->DELAY1
DELAY1-->COIN2
COIN2--TRIG-->DAQ
COIN2-->GATE1
GATE1--VETO-->COIN2

%% Technically we had this path, but DIS3 was redundant
%% DELAY1-->DIS3
%% DIS3-->COIN1
%% COIN1-->COIN2